^D:\USERS\DOREL\DOCUMENTS\VISUAL STUDIO 2015\PROJECTS\TRIVIA V16\TRIVIA V10\TRIVIA V2\HEADERS\DATABASE.CPP|D:\USERS\DOREL\DOCUMENTS\VISUAL STUDIO 2015\PROJECTS\TRIVIA V16\TRIVIA V10\TRIVIA V2\HEADERS\GAME.CPP|D:\USERS\DOREL\DOCUMENTS\VISUAL STUDIO 2015\PROJECTS\TRIVIA V16\TRIVIA V10\TRIVIA V2\HEADERS\HELPER.CPP|D:\USERS\DOREL\DOCUMENTS\VISUAL STUDIO 2015\PROJECTS\TRIVIA V16\TRIVIA V10\TRIVIA V2\HEADERS\HELPER2.CPP|D:\USERS\DOREL\DOCUMENTS\VISUAL STUDIO 2015\PROJECTS\TRIVIA V16\TRIVIA V10\TRIVIA V2\HEADERS\PROTOCOL.CPP|D:\USERS\DOREL\DOCUMENTS\VISUAL STUDIO 2015\PROJECTS\TRIVIA V16\TRIVIA V10\TRIVIA V2\HEADERS\QUESTION.CPP|D:\USERS\DOREL\DOCUMENTS\VISUAL STUDIO 2015\PROJECTS\TRIVIA V16\TRIVIA V10\TRIVIA V2\HEADERS\RECEIVEDMESSAGE.CPP|D:\USERS\DOREL\DOCUMENTS\VISUAL STUDIO 2015\PROJECTS\TRIVIA V16\TRIVIA V10\TRIVIA V2\HEADERS\ROOM.CPP|D:\USERS\DOREL\DOCUMENTS\VISUAL STUDIO 2015\PROJECTS\TRIVIA V16\TRIVIA V10\TRIVIA V2\HEADERS\TRIVIASERVER.CPP|D:\USERS\DOREL\DOCUMENTS\VISUAL STUDIO 2015\PROJECTS\TRIVIA V16\TRIVIA V10\TRIVIA V2\HEADERS\USER.CPP|D:\USERS\DOREL\DOCUMENTS\VISUAL STUDIO 2015\PROJECTS\TRIVIA V16\TRIVIA V10\TRIVIA V2\HEADERS\VALIDATOR.CPP|D:\USERS\DOREL\DOCUMENTS\VISUAL STUDIO 2015\PROJECTS\TRIVIA V16\TRIVIA V10\TRIVIA V2\HEADERS\WSAINITIALIZER.CPP|D:\USERS\DOREL\DOCUMENTS\VISUAL STUDIO 2015\PROJECTS\TRIVIA V16\TRIVIA V10\TRIVIA V2\SOURCE.CPP
D:\USERS\DOREL\DOCUMENTS\VISUAL STUDIO 2015\PROJECTS\TRIVIA V16\TRIVIA V10\TRIVIA V2\DEBUG\VC140.PDB
D:\USERS\DOREL\DOCUMENTS\VISUAL STUDIO 2015\PROJECTS\TRIVIA V16\TRIVIA V10\TRIVIA V2\DEBUG\VC140.IDB
D:\USERS\DOREL\DOCUMENTS\VISUAL STUDIO 2015\PROJECTS\TRIVIA V16\TRIVIA V10\TRIVIA V2\DEBUG\DATABASE.OBJ
D:\USERS\DOREL\DOCUMENTS\VISUAL STUDIO 2015\PROJECTS\TRIVIA V16\TRIVIA V10\TRIVIA V2\DEBUG\GAME.OBJ
D:\USERS\DOREL\DOCUMENTS\VISUAL STUDIO 2015\PROJECTS\TRIVIA V16\TRIVIA V10\TRIVIA V2\DEBUG\HELPER.OBJ
D:\USERS\DOREL\DOCUMENTS\VISUAL STUDIO 2015\PROJECTS\TRIVIA V16\TRIVIA V10\TRIVIA V2\DEBUG\HELPER2.OBJ
D:\USERS\DOREL\DOCUMENTS\VISUAL STUDIO 2015\PROJECTS\TRIVIA V16\TRIVIA V10\TRIVIA V2\DEBUG\PROTOCOL.OBJ
D:\USERS\DOREL\DOCUMENTS\VISUAL STUDIO 2015\PROJECTS\TRIVIA V16\TRIVIA V10\TRIVIA V2\DEBUG\QUESTION.OBJ
D:\USERS\DOREL\DOCUMENTS\VISUAL STUDIO 2015\PROJECTS\TRIVIA V16\TRIVIA V10\TRIVIA V2\DEBUG\RECEIVEDMESSAGE.OBJ
D:\USERS\DOREL\DOCUMENTS\VISUAL STUDIO 2015\PROJECTS\TRIVIA V16\TRIVIA V10\TRIVIA V2\DEBUG\ROOM.OBJ
D:\USERS\DOREL\DOCUMENTS\VISUAL STUDIO 2015\PROJECTS\TRIVIA V16\TRIVIA V10\TRIVIA V2\DEBUG\TRIVIASERVER.OBJ
D:\USERS\DOREL\DOCUMENTS\VISUAL STUDIO 2015\PROJECTS\TRIVIA V16\TRIVIA V10\TRIVIA V2\DEBUG\USER.OBJ
D:\USERS\DOREL\DOCUMENTS\VISUAL STUDIO 2015\PROJECTS\TRIVIA V16\TRIVIA V10\TRIVIA V2\DEBUG\VALIDATOR.OBJ
D:\USERS\DOREL\DOCUMENTS\VISUAL STUDIO 2015\PROJECTS\TRIVIA V16\TRIVIA V10\TRIVIA V2\DEBUG\WSAINITIALIZER.OBJ
D:\USERS\DOREL\DOCUMENTS\VISUAL STUDIO 2015\PROJECTS\TRIVIA V16\TRIVIA V10\TRIVIA V2\DEBUG\SOURCE.OBJ
^D:\USERS\DOREL\DOCUMENTS\VISUAL STUDIO 2015\PROJECTS\TRIVIA V16\TRIVIA V10\TRIVIA V2\HEADERS\DATABASE.CPP
D:\USERS\DOREL\DOCUMENTS\VISUAL STUDIO 2015\PROJECTS\TRIVIA V16\TRIVIA V10\TRIVIA V2\DEBUG\VC140.PDB
D:\USERS\DOREL\DOCUMENTS\VISUAL STUDIO 2015\PROJECTS\TRIVIA V16\TRIVIA V10\TRIVIA V2\DEBUG\VC140.IDB
D:\USERS\DOREL\DOCUMENTS\VISUAL STUDIO 2015\PROJECTS\TRIVIA V16\TRIVIA V10\TRIVIA V2\DEBUG\DATABASE.OBJ
^D:\USERS\DOREL\DOCUMENTS\VISUAL STUDIO 2015\PROJECTS\TRIVIA V16\TRIVIA V10\TRIVIA V2\HEADERS\GAME.CPP
D:\USERS\DOREL\DOCUMENTS\VISUAL STUDIO 2015\PROJECTS\TRIVIA V16\TRIVIA V10\TRIVIA V2\DEBUG\VC140.PDB
^D:\USERS\DOREL\DOCUMENTS\VISUAL STUDIO 2015\PROJECTS\TRIVIA V16\TRIVIA V10\TRIVIA V2\HEADERS\HELPER.CPP
D:\USERS\DOREL\DOCUMENTS\VISUAL STUDIO 2015\PROJECTS\TRIVIA V16\TRIVIA V10\TRIVIA V2\DEBUG\VC140.PDB
^D:\USERS\DOREL\DOCUMENTS\VISUAL STUDIO 2015\PROJECTS\TRIVIA V16\TRIVIA V10\TRIVIA V2\HEADERS\HELPER2.CPP
D:\USERS\DOREL\DOCUMENTS\VISUAL STUDIO 2015\PROJECTS\TRIVIA V16\TRIVIA V10\TRIVIA V2\DEBUG\VC140.PDB
^D:\USERS\DOREL\DOCUMENTS\VISUAL STUDIO 2015\PROJECTS\TRIVIA V16\TRIVIA V10\TRIVIA V2\HEADERS\PROTOCOL.CPP
D:\USERS\DOREL\DOCUMENTS\VISUAL STUDIO 2015\PROJECTS\TRIVIA V16\TRIVIA V10\TRIVIA V2\DEBUG\VC140.PDB
^D:\USERS\DOREL\DOCUMENTS\VISUAL STUDIO 2015\PROJECTS\TRIVIA V16\TRIVIA V10\TRIVIA V2\HEADERS\QUESTION.CPP
D:\USERS\DOREL\DOCUMENTS\VISUAL STUDIO 2015\PROJECTS\TRIVIA V16\TRIVIA V10\TRIVIA V2\DEBUG\VC140.PDB
^D:\USERS\DOREL\DOCUMENTS\VISUAL STUDIO 2015\PROJECTS\TRIVIA V16\TRIVIA V10\TRIVIA V2\HEADERS\RECEIVEDMESSAGE.CPP
D:\USERS\DOREL\DOCUMENTS\VISUAL STUDIO 2015\PROJECTS\TRIVIA V16\TRIVIA V10\TRIVIA V2\DEBUG\VC140.PDB
^D:\USERS\DOREL\DOCUMENTS\VISUAL STUDIO 2015\PROJECTS\TRIVIA V16\TRIVIA V10\TRIVIA V2\HEADERS\ROOM.CPP
D:\USERS\DOREL\DOCUMENTS\VISUAL STUDIO 2015\PROJECTS\TRIVIA V16\TRIVIA V10\TRIVIA V2\DEBUG\VC140.PDB
^D:\USERS\DOREL\DOCUMENTS\VISUAL STUDIO 2015\PROJECTS\TRIVIA V16\TRIVIA V10\TRIVIA V2\HEADERS\TRIVIASERVER.CPP
D:\USERS\DOREL\DOCUMENTS\VISUAL STUDIO 2015\PROJECTS\TRIVIA V16\TRIVIA V10\TRIVIA V2\DEBUG\VC140.PDB
D:\USERS\DOREL\DOCUMENTS\VISUAL STUDIO 2015\PROJECTS\TRIVIA V16\TRIVIA V10\TRIVIA V2\DEBUG\VC140.IDB
D:\USERS\DOREL\DOCUMENTS\VISUAL STUDIO 2015\PROJECTS\TRIVIA V16\TRIVIA V10\TRIVIA V2\DEBUG\TRIVIASERVER.OBJ
^D:\USERS\DOREL\DOCUMENTS\VISUAL STUDIO 2015\PROJECTS\TRIVIA V16\TRIVIA V10\TRIVIA V2\HEADERS\USER.CPP
D:\USERS\DOREL\DOCUMENTS\VISUAL STUDIO 2015\PROJECTS\TRIVIA V16\TRIVIA V10\TRIVIA V2\DEBUG\VC140.PDB
^D:\USERS\DOREL\DOCUMENTS\VISUAL STUDIO 2015\PROJECTS\TRIVIA V16\TRIVIA V10\TRIVIA V2\HEADERS\VALIDATOR.CPP
D:\USERS\DOREL\DOCUMENTS\VISUAL STUDIO 2015\PROJECTS\TRIVIA V16\TRIVIA V10\TRIVIA V2\DEBUG\VC140.PDB
^D:\USERS\DOREL\DOCUMENTS\VISUAL STUDIO 2015\PROJECTS\TRIVIA V16\TRIVIA V10\TRIVIA V2\HEADERS\WSAINITIALIZER.CPP
D:\USERS\DOREL\DOCUMENTS\VISUAL STUDIO 2015\PROJECTS\TRIVIA V16\TRIVIA V10\TRIVIA V2\DEBUG\VC140.PDB
^D:\USERS\DOREL\DOCUMENTS\VISUAL STUDIO 2015\PROJECTS\TRIVIA V16\TRIVIA V10\TRIVIA V2\SOURCE.CPP
D:\USERS\DOREL\DOCUMENTS\VISUAL STUDIO 2015\PROJECTS\TRIVIA V16\TRIVIA V10\TRIVIA V2\DEBUG\VC140.PDB
^D:\USERS\DOREL\DOCUMENTS\VISUAL STUDIO 2015\PROJECTS\TRIVIA V16\TRIVIA V10\TRIVIA V2\HEADERS\SQLITE3.C
D:\USERS\DOREL\DOCUMENTS\VISUAL STUDIO 2015\PROJECTS\TRIVIA V16\TRIVIA V10\TRIVIA V2\DEBUG\VC140.PDB
D:\USERS\DOREL\DOCUMENTS\VISUAL STUDIO 2015\PROJECTS\TRIVIA V16\TRIVIA V10\TRIVIA V2\DEBUG\VC140.IDB
D:\USERS\DOREL\DOCUMENTS\VISUAL STUDIO 2015\PROJECTS\TRIVIA V16\TRIVIA V10\TRIVIA V2\DEBUG\SQLITE3.OBJ
^D:\USERS\DOREL\DOCUMENTS\VISUAL STUDIO 2015\PROJECTS\TRIVIA V16\TRIVIA V10\TRIVIA V2\HEADERS\DATABASE.CPP|D:\USERS\DOREL\DOCUMENTS\VISUAL STUDIO 2015\PROJECTS\TRIVIA V16\TRIVIA V10\TRIVIA V2\HEADERS\GAME.CPP|D:\USERS\DOREL\DOCUMENTS\VISUAL STUDIO 2015\PROJECTS\TRIVIA V16\TRIVIA V10\TRIVIA V2\HEADERS\RECEIVEDMESSAGE.CPP|D:\USERS\DOREL\DOCUMENTS\VISUAL STUDIO 2015\PROJECTS\TRIVIA V16\TRIVIA V10\TRIVIA V2\HEADERS\ROOM.CPP|D:\USERS\DOREL\DOCUMENTS\VISUAL STUDIO 2015\PROJECTS\TRIVIA V16\TRIVIA V10\TRIVIA V2\HEADERS\TRIVIASERVER.CPP|D:\USERS\DOREL\DOCUMENTS\VISUAL STUDIO 2015\PROJECTS\TRIVIA V16\TRIVIA V10\TRIVIA V2\HEADERS\USER.CPP|D:\USERS\DOREL\DOCUMENTS\VISUAL STUDIO 2015\PROJECTS\TRIVIA V16\TRIVIA V10\TRIVIA V2\SOURCE.CPP
D:\USERS\DOREL\DOCUMENTS\VISUAL STUDIO 2015\PROJECTS\TRIVIA V16\TRIVIA V10\TRIVIA V2\DEBUG\VC140.PDB
D:\USERS\DOREL\DOCUMENTS\VISUAL STUDIO 2015\PROJECTS\TRIVIA V16\TRIVIA V10\TRIVIA V2\DEBUG\VC140.IDB
D:\USERS\DOREL\DOCUMENTS\VISUAL STUDIO 2015\PROJECTS\TRIVIA V16\TRIVIA V10\TRIVIA V2\DEBUG\DATABASE.OBJ
D:\USERS\DOREL\DOCUMENTS\VISUAL STUDIO 2015\PROJECTS\TRIVIA V16\TRIVIA V10\TRIVIA V2\DEBUG\GAME.OBJ
^D:\USERS\DOREL\DOCUMENTS\VISUAL STUDIO 2015\PROJECTS\TRIVIA V16\TRIVIA V10\TRIVIA V2\HEADERS\DATABASE.CPP|D:\USERS\DOREL\DOCUMENTS\VISUAL STUDIO 2015\PROJECTS\TRIVIA V16\TRIVIA V10\TRIVIA V2\HEADERS\TRIVIASERVER.CPP
D:\USERS\DOREL\DOCUMENTS\VISUAL STUDIO 2015\PROJECTS\TRIVIA V16\TRIVIA V10\TRIVIA V2\DEBUG\VC140.PDB
D:\USERS\DOREL\DOCUMENTS\VISUAL STUDIO 2015\PROJECTS\TRIVIA V16\TRIVIA V10\TRIVIA V2\DEBUG\VC140.IDB
D:\USERS\DOREL\DOCUMENTS\VISUAL STUDIO 2015\PROJECTS\TRIVIA V16\TRIVIA V10\TRIVIA V2\DEBUG\DATABASE.OBJ
D:\USERS\DOREL\DOCUMENTS\VISUAL STUDIO 2015\PROJECTS\TRIVIA V16\TRIVIA V10\TRIVIA V2\DEBUG\TRIVIASERVER.OBJ
^D:\USERS\DOREL\DOCUMENTS\VISUAL STUDIO 2015\PROJECTS\TRIVIA V16\TRIVIA V10\TRIVIA V2\HEADERS\TRIVIASERVER.CPP|D:\USERS\DOREL\DOCUMENTS\VISUAL STUDIO 2015\PROJECTS\TRIVIA V16\TRIVIA V10\TRIVIA V2\SOURCE.CPP
D:\USERS\DOREL\DOCUMENTS\VISUAL STUDIO 2015\PROJECTS\TRIVIA V16\TRIVIA V10\TRIVIA V2\DEBUG\VC140.PDB
D:\USERS\DOREL\DOCUMENTS\VISUAL STUDIO 2015\PROJECTS\TRIVIA V16\TRIVIA V10\TRIVIA V2\DEBUG\VC140.IDB
D:\USERS\DOREL\DOCUMENTS\VISUAL STUDIO 2015\PROJECTS\TRIVIA V16\TRIVIA V10\TRIVIA V2\DEBUG\TRIVIASERVER.OBJ
D:\USERS\DOREL\DOCUMENTS\VISUAL STUDIO 2015\PROJECTS\TRIVIA V16\TRIVIA V10\TRIVIA V2\DEBUG\SOURCE.OBJ
^D:\USERS\DOREL\DOCUMENTS\VISUAL STUDIO 2015\PROJECTS\TRIVIA V16\TRIVIA V10\TRIVIA V2\HEADERS\DATABASE.CPP|D:\USERS\DOREL\DOCUMENTS\VISUAL STUDIO 2015\PROJECTS\TRIVIA V16\TRIVIA V10\TRIVIA V2\HEADERS\TRIVIASERVER.CPP|D:\USERS\DOREL\DOCUMENTS\VISUAL STUDIO 2015\PROJECTS\TRIVIA V16\TRIVIA V10\TRIVIA V2\SOURCE.CPP
D:\USERS\DOREL\DOCUMENTS\VISUAL STUDIO 2015\PROJECTS\TRIVIA V16\TRIVIA V10\TRIVIA V2\DEBUG\VC140.PDB
D:\USERS\DOREL\DOCUMENTS\VISUAL STUDIO 2015\PROJECTS\TRIVIA V16\TRIVIA V10\TRIVIA V2\DEBUG\VC140.IDB
D:\USERS\DOREL\DOCUMENTS\VISUAL STUDIO 2015\PROJECTS\TRIVIA V16\TRIVIA V10\TRIVIA V2\DEBUG\DATABASE.OBJ
D:\USERS\DOREL\DOCUMENTS\VISUAL STUDIO 2015\PROJECTS\TRIVIA V16\TRIVIA V10\TRIVIA V2\DEBUG\TRIVIASERVER.OBJ
D:\USERS\DOREL\DOCUMENTS\VISUAL STUDIO 2015\PROJECTS\TRIVIA V16\TRIVIA V10\TRIVIA V2\DEBUG\SOURCE.OBJ
