^C:\USERS\USER\DESKTOP\TRIVIA\TRIVIA V10\TRIVIA V2\HEADERS\DATABASE.CPP|C:\USERS\USER\DESKTOP\TRIVIA\TRIVIA V10\TRIVIA V2\HEADERS\GAME.CPP|C:\USERS\USER\DESKTOP\TRIVIA\TRIVIA V10\TRIVIA V2\HEADERS\HELPER.CPP|C:\USERS\USER\DESKTOP\TRIVIA\TRIVIA V10\TRIVIA V2\HEADERS\HELPER2.CPP|C:\USERS\USER\DESKTOP\TRIVIA\TRIVIA V10\TRIVIA V2\HEADERS\PROTOCOL.CPP|C:\USERS\USER\DESKTOP\TRIVIA\TRIVIA V10\TRIVIA V2\HEADERS\QUESTION.CPP|C:\USERS\USER\DESKTOP\TRIVIA\TRIVIA V10\TRIVIA V2\HEADERS\RECEIVEDMESSAGE.CPP|C:\USERS\USER\DESKTOP\TRIVIA\TRIVIA V10\TRIVIA V2\HEADERS\ROOM.CPP|C:\USERS\USER\DESKTOP\TRIVIA\TRIVIA V10\TRIVIA V2\HEADERS\TRIVIASERVER.CPP|C:\USERS\USER\DESKTOP\TRIVIA\TRIVIA V10\TRIVIA V2\HEADERS\USER.CPP|C:\USERS\USER\DESKTOP\TRIVIA\TRIVIA V10\TRIVIA V2\HEADERS\VALIDATOR.CPP|C:\USERS\USER\DESKTOP\TRIVIA\TRIVIA V10\TRIVIA V2\HEADERS\WSAINITIALIZER.CPP|C:\USERS\USER\DESKTOP\TRIVIA\TRIVIA V10\TRIVIA V2\SOURCE.CPP
C:\USERS\USER\DESKTOP\TRIVIA\TRIVIA V10\TRIVIA V2\X64\DEBUG\VC120.PDB
C:\USERS\USER\DESKTOP\TRIVIA\TRIVIA V10\TRIVIA V2\X64\DEBUG\VC120.IDB
C:\USERS\USER\DESKTOP\TRIVIA\TRIVIA V10\TRIVIA V2\X64\DEBUG\DATABASE.OBJ
C:\USERS\USER\DESKTOP\TRIVIA\TRIVIA V10\TRIVIA V2\X64\DEBUG\GAME.OBJ
C:\USERS\USER\DESKTOP\TRIVIA\TRIVIA V10\TRIVIA V2\X64\DEBUG\HELPER.OBJ
C:\USERS\USER\DESKTOP\TRIVIA\TRIVIA V10\TRIVIA V2\X64\DEBUG\HELPER2.OBJ
C:\USERS\USER\DESKTOP\TRIVIA\TRIVIA V10\TRIVIA V2\X64\DEBUG\PROTOCOL.OBJ
C:\USERS\USER\DESKTOP\TRIVIA\TRIVIA V10\TRIVIA V2\X64\DEBUG\QUESTION.OBJ
C:\USERS\USER\DESKTOP\TRIVIA\TRIVIA V10\TRIVIA V2\X64\DEBUG\RECEIVEDMESSAGE.OBJ
C:\USERS\USER\DESKTOP\TRIVIA\TRIVIA V10\TRIVIA V2\X64\DEBUG\ROOM.OBJ
C:\USERS\USER\DESKTOP\TRIVIA\TRIVIA V10\TRIVIA V2\X64\DEBUG\TRIVIASERVER.OBJ
C:\USERS\USER\DESKTOP\TRIVIA\TRIVIA V10\TRIVIA V2\X64\DEBUG\USER.OBJ
C:\USERS\USER\DESKTOP\TRIVIA\TRIVIA V10\TRIVIA V2\X64\DEBUG\VALIDATOR.OBJ
C:\USERS\USER\DESKTOP\TRIVIA\TRIVIA V10\TRIVIA V2\X64\DEBUG\WSAINITIALIZER.OBJ
C:\USERS\USER\DESKTOP\TRIVIA\TRIVIA V10\TRIVIA V2\X64\DEBUG\SOURCE.OBJ
^C:\USERS\USER\DESKTOP\TRIVIA\TRIVIA V10\TRIVIA V2\HEADERS\DATABASE.CPP
C:\USERS\USER\DESKTOP\TRIVIA\TRIVIA V10\TRIVIA V2\X64\DEBUG\VC120.PDB
C:\USERS\USER\DESKTOP\TRIVIA\TRIVIA V10\TRIVIA V2\X64\DEBUG\VC120.IDB
C:\USERS\USER\DESKTOP\TRIVIA\TRIVIA V10\TRIVIA V2\X64\DEBUG\DATABASE.OBJ
^C:\USERS\USER\DESKTOP\TRIVIA\TRIVIA V10\TRIVIA V2\HEADERS\GAME.CPP
C:\USERS\USER\DESKTOP\TRIVIA\TRIVIA V10\TRIVIA V2\X64\DEBUG\VC120.PDB
^C:\USERS\USER\DESKTOP\TRIVIA\TRIVIA V10\TRIVIA V2\HEADERS\HELPER.CPP
C:\USERS\USER\DESKTOP\TRIVIA\TRIVIA V10\TRIVIA V2\X64\DEBUG\VC120.PDB
^C:\USERS\USER\DESKTOP\TRIVIA\TRIVIA V10\TRIVIA V2\HEADERS\HELPER2.CPP
C:\USERS\USER\DESKTOP\TRIVIA\TRIVIA V10\TRIVIA V2\X64\DEBUG\VC120.PDB
^C:\USERS\USER\DESKTOP\TRIVIA\TRIVIA V10\TRIVIA V2\HEADERS\PROTOCOL.CPP
C:\USERS\USER\DESKTOP\TRIVIA\TRIVIA V10\TRIVIA V2\X64\DEBUG\VC120.PDB
^C:\USERS\USER\DESKTOP\TRIVIA\TRIVIA V10\TRIVIA V2\HEADERS\QUESTION.CPP
C:\USERS\USER\DESKTOP\TRIVIA\TRIVIA V10\TRIVIA V2\X64\DEBUG\VC120.PDB
^C:\USERS\USER\DESKTOP\TRIVIA\TRIVIA V10\TRIVIA V2\HEADERS\RECEIVEDMESSAGE.CPP
C:\USERS\USER\DESKTOP\TRIVIA\TRIVIA V10\TRIVIA V2\X64\DEBUG\VC120.PDB
^C:\USERS\USER\DESKTOP\TRIVIA\TRIVIA V10\TRIVIA V2\HEADERS\ROOM.CPP
C:\USERS\USER\DESKTOP\TRIVIA\TRIVIA V10\TRIVIA V2\X64\DEBUG\VC120.PDB
C:\USERS\USER\DESKTOP\TRIVIA\TRIVIA V10\TRIVIA V2\X64\DEBUG\VC120.IDB
C:\USERS\USER\DESKTOP\TRIVIA\TRIVIA V10\TRIVIA V2\X64\DEBUG\ROOM.OBJ
^C:\USERS\USER\DESKTOP\TRIVIA\TRIVIA V10\TRIVIA V2\HEADERS\TRIVIASERVER.CPP
C:\USERS\USER\DESKTOP\TRIVIA\TRIVIA V10\TRIVIA V2\X64\DEBUG\VC120.PDB
C:\USERS\USER\DESKTOP\TRIVIA\TRIVIA V10\TRIVIA V2\X64\DEBUG\VC120.IDB
C:\USERS\USER\DESKTOP\TRIVIA\TRIVIA V10\TRIVIA V2\X64\DEBUG\TRIVIASERVER.OBJ
^C:\USERS\USER\DESKTOP\TRIVIA\TRIVIA V10\TRIVIA V2\HEADERS\USER.CPP
C:\USERS\USER\DESKTOP\TRIVIA\TRIVIA V10\TRIVIA V2\X64\DEBUG\VC120.PDB
^C:\USERS\USER\DESKTOP\TRIVIA\TRIVIA V10\TRIVIA V2\HEADERS\VALIDATOR.CPP
C:\USERS\USER\DESKTOP\TRIVIA\TRIVIA V10\TRIVIA V2\X64\DEBUG\VC120.PDB
^C:\USERS\USER\DESKTOP\TRIVIA\TRIVIA V10\TRIVIA V2\HEADERS\WSAINITIALIZER.CPP
C:\USERS\USER\DESKTOP\TRIVIA\TRIVIA V10\TRIVIA V2\X64\DEBUG\VC120.PDB
^C:\USERS\USER\DESKTOP\TRIVIA\TRIVIA V10\TRIVIA V2\SOURCE.CPP
C:\USERS\USER\DESKTOP\TRIVIA\TRIVIA V10\TRIVIA V2\X64\DEBUG\VC120.PDB
^C:\USERS\USER\DESKTOP\TRIVIA\TRIVIA V10\TRIVIA V2\HEADERS\DATABASE.CPP|C:\USERS\USER\DESKTOP\TRIVIA\TRIVIA V10\TRIVIA V2\HEADERS\TRIVIASERVER.CPP
C:\USERS\USER\DESKTOP\TRIVIA\TRIVIA V10\TRIVIA V2\X64\DEBUG\VC120.PDB
C:\USERS\USER\DESKTOP\TRIVIA\TRIVIA V10\TRIVIA V2\X64\DEBUG\VC120.IDB
C:\USERS\USER\DESKTOP\TRIVIA\TRIVIA V10\TRIVIA V2\X64\DEBUG\DATABASE.OBJ
C:\USERS\USER\DESKTOP\TRIVIA\TRIVIA V10\TRIVIA V2\X64\DEBUG\TRIVIASERVER.OBJ
^C:\USERS\USER\DESKTOP\TRIVIA\TRIVIA V10\TRIVIA V2\HEADERS\TRIVIASERVER.CPP|C:\USERS\USER\DESKTOP\TRIVIA\TRIVIA V10\TRIVIA V2\SOURCE.CPP
C:\USERS\USER\DESKTOP\TRIVIA\TRIVIA V10\TRIVIA V2\X64\DEBUG\VC120.PDB
C:\USERS\USER\DESKTOP\TRIVIA\TRIVIA V10\TRIVIA V2\X64\DEBUG\VC120.IDB
C:\USERS\USER\DESKTOP\TRIVIA\TRIVIA V10\TRIVIA V2\X64\DEBUG\TRIVIASERVER.OBJ
C:\USERS\USER\DESKTOP\TRIVIA\TRIVIA V10\TRIVIA V2\X64\DEBUG\SOURCE.OBJ
^C:\USERS\USER\DESKTOP\TRIVIA\TRIVIA V10\TRIVIA V2\HEADERS\ROOM.CPP|C:\USERS\USER\DESKTOP\TRIVIA\TRIVIA V10\TRIVIA V2\HEADERS\USER.CPP
C:\USERS\USER\DESKTOP\TRIVIA\TRIVIA V10\TRIVIA V2\X64\DEBUG\VC120.PDB
C:\USERS\USER\DESKTOP\TRIVIA\TRIVIA V10\TRIVIA V2\X64\DEBUG\VC120.IDB
C:\USERS\USER\DESKTOP\TRIVIA\TRIVIA V10\TRIVIA V2\X64\DEBUG\ROOM.OBJ
C:\USERS\USER\DESKTOP\TRIVIA\TRIVIA V10\TRIVIA V2\X64\DEBUG\USER.OBJ
^C:\USERS\USER\DESKTOP\TRIVIA\TRIVIA V10\TRIVIA V2\HEADERS\ROOM.CPP|C:\USERS\USER\DESKTOP\TRIVIA\TRIVIA V10\TRIVIA V2\HEADERS\TRIVIASERVER.CPP
C:\USERS\USER\DESKTOP\TRIVIA\TRIVIA V10\TRIVIA V2\X64\DEBUG\VC120.PDB
C:\USERS\USER\DESKTOP\TRIVIA\TRIVIA V10\TRIVIA V2\X64\DEBUG\VC120.IDB
C:\USERS\USER\DESKTOP\TRIVIA\TRIVIA V10\TRIVIA V2\X64\DEBUG\ROOM.OBJ
C:\USERS\USER\DESKTOP\TRIVIA\TRIVIA V10\TRIVIA V2\X64\DEBUG\TRIVIASERVER.OBJ
^C:\USERS\USER\DESKTOP\TRIVIA\TRIVIA V10\TRIVIA V2\HEADERS\TRIVIASERVER.CPP|C:\USERS\USER\DESKTOP\TRIVIA\TRIVIA V10\TRIVIA V2\HEADERS\USER.CPP
C:\USERS\USER\DESKTOP\TRIVIA\TRIVIA V10\TRIVIA V2\X64\DEBUG\VC120.PDB
C:\USERS\USER\DESKTOP\TRIVIA\TRIVIA V10\TRIVIA V2\X64\DEBUG\VC120.IDB
C:\USERS\USER\DESKTOP\TRIVIA\TRIVIA V10\TRIVIA V2\X64\DEBUG\TRIVIASERVER.OBJ
C:\USERS\USER\DESKTOP\TRIVIA\TRIVIA V10\TRIVIA V2\X64\DEBUG\USER.OBJ
^C:\USERS\USER\DESKTOP\TRIVIA\TRIVIA V10\TRIVIA V2\HEADERS\ROOM.CPP|C:\USERS\USER\DESKTOP\TRIVIA\TRIVIA V10\TRIVIA V2\HEADERS\TRIVIASERVER.CPP|C:\USERS\USER\DESKTOP\TRIVIA\TRIVIA V10\TRIVIA V2\HEADERS\USER.CPP
C:\USERS\USER\DESKTOP\TRIVIA\TRIVIA V10\TRIVIA V2\X64\DEBUG\VC120.PDB
C:\USERS\USER\DESKTOP\TRIVIA\TRIVIA V10\TRIVIA V2\X64\DEBUG\VC120.IDB
C:\USERS\USER\DESKTOP\TRIVIA\TRIVIA V10\TRIVIA V2\X64\DEBUG\ROOM.OBJ
C:\USERS\USER\DESKTOP\TRIVIA\TRIVIA V10\TRIVIA V2\X64\DEBUG\TRIVIASERVER.OBJ
C:\USERS\USER\DESKTOP\TRIVIA\TRIVIA V10\TRIVIA V2\X64\DEBUG\USER.OBJ
^C:\USERS\USER\DESKTOP\TRIVIA\TRIVIA V10\TRIVIA V2\HEADERS\RECEIVEDMESSAGE.CPP|C:\USERS\USER\DESKTOP\TRIVIA\TRIVIA V10\TRIVIA V2\HEADERS\ROOM.CPP|C:\USERS\USER\DESKTOP\TRIVIA\TRIVIA V10\TRIVIA V2\HEADERS\TRIVIASERVER.CPP|C:\USERS\USER\DESKTOP\TRIVIA\TRIVIA V10\TRIVIA V2\HEADERS\USER.CPP|C:\USERS\USER\DESKTOP\TRIVIA\TRIVIA V10\TRIVIA V2\SOURCE.CPP
C:\USERS\USER\DESKTOP\TRIVIA\TRIVIA V10\TRIVIA V2\X64\DEBUG\VC120.PDB
C:\USERS\USER\DESKTOP\TRIVIA\TRIVIA V10\TRIVIA V2\X64\DEBUG\VC120.IDB
C:\USERS\USER\DESKTOP\TRIVIA\TRIVIA V10\TRIVIA V2\X64\DEBUG\ROOM.OBJ
