^C:\USERS\USER\DESKTOP\TRIVIA\TRIVIA V10\TRIVIA V2\X64\DEBUG\DATABASE.OBJ|C:\USERS\USER\DESKTOP\TRIVIA\TRIVIA V10\TRIVIA V2\X64\DEBUG\GAME.OBJ|C:\USERS\USER\DESKTOP\TRIVIA\TRIVIA V10\TRIVIA V2\X64\DEBUG\HELPER.OBJ|C:\USERS\USER\DESKTOP\TRIVIA\TRIVIA V10\TRIVIA V2\X64\DEBUG\HELPER2.OBJ|C:\USERS\USER\DESKTOP\TRIVIA\TRIVIA V10\TRIVIA V2\X64\DEBUG\PROTOCOL.OBJ|C:\USERS\USER\DESKTOP\TRIVIA\TRIVIA V10\TRIVIA V2\X64\DEBUG\QUESTION.OBJ|C:\USERS\USER\DESKTOP\TRIVIA\TRIVIA V10\TRIVIA V2\X64\DEBUG\RECEIVEDMESSAGE.OBJ|C:\USERS\USER\DESKTOP\TRIVIA\TRIVIA V10\TRIVIA V2\X64\DEBUG\ROOM.OBJ|C:\USERS\USER\DESKTOP\TRIVIA\TRIVIA V10\TRIVIA V2\X64\DEBUG\SOURCE.OBJ|C:\USERS\USER\DESKTOP\TRIVIA\TRIVIA V10\TRIVIA V2\X64\DEBUG\TRIVIASERVER.OBJ|C:\USERS\USER\DESKTOP\TRIVIA\TRIVIA V10\TRIVIA V2\X64\DEBUG\USER.OBJ|C:\USERS\USER\DESKTOP\TRIVIA\TRIVIA V10\TRIVIA V2\X64\DEBUG\VALIDATOR.OBJ|C:\USERS\USER\DESKTOP\TRIVIA\TRIVIA V10\TRIVIA V2\X64\DEBUG\WSAINITIALIZER.OBJ
C:\WINDOWS\SYSTEM32\C_1252.NLS
C:\PROGRAM FILES (X86)\WINDOWS KITS\8.1\LIB\WINV6.3\UM\X64\KERNEL32.LIB
C:\PROGRAM FILES (X86)\WINDOWS KITS\8.1\LIB\WINV6.3\UM\X64\USER32.LIB
C:\PROGRAM FILES (X86)\WINDOWS KITS\8.1\LIB\WINV6.3\UM\X64\GDI32.LIB
C:\PROGRAM FILES (X86)\WINDOWS KITS\8.1\LIB\WINV6.3\UM\X64\WINSPOOL.LIB
C:\PROGRAM FILES (X86)\WINDOWS KITS\8.1\LIB\WINV6.3\UM\X64\COMDLG32.LIB
C:\PROGRAM FILES (X86)\WINDOWS KITS\8.1\LIB\WINV6.3\UM\X64\ADVAPI32.LIB
C:\PROGRAM FILES (X86)\WINDOWS KITS\8.1\LIB\WINV6.3\UM\X64\SHELL32.LIB
C:\PROGRAM FILES (X86)\WINDOWS KITS\8.1\LIB\WINV6.3\UM\X64\OLE32.LIB
C:\PROGRAM FILES (X86)\WINDOWS KITS\8.1\LIB\WINV6.3\UM\X64\OLEAUT32.LIB
C:\PROGRAM FILES (X86)\WINDOWS KITS\8.1\LIB\WINV6.3\UM\X64\UUID.LIB
C:\PROGRAM FILES (X86)\WINDOWS KITS\8.1\LIB\WINV6.3\UM\X64\ODBC32.LIB
C:\PROGRAM FILES (X86)\WINDOWS KITS\8.1\LIB\WINV6.3\UM\X64\ODBCCP32.LIB
C:\USERS\USER\DESKTOP\TRIVIA\TRIVIA V10\TRIVIA V2\X64\DEBUG\DATABASE.OBJ
C:\USERS\USER\DESKTOP\TRIVIA\TRIVIA V10\TRIVIA V2\X64\DEBUG\GAME.OBJ
C:\USERS\USER\DESKTOP\TRIVIA\TRIVIA V10\TRIVIA V2\X64\DEBUG\HELPER.OBJ
C:\USERS\USER\DESKTOP\TRIVIA\TRIVIA V10\TRIVIA V2\X64\DEBUG\HELPER2.OBJ
C:\USERS\USER\DESKTOP\TRIVIA\TRIVIA V10\TRIVIA V2\X64\DEBUG\PROTOCOL.OBJ
C:\USERS\USER\DESKTOP\TRIVIA\TRIVIA V10\TRIVIA V2\X64\DEBUG\QUESTION.OBJ
C:\USERS\USER\DESKTOP\TRIVIA\TRIVIA V10\TRIVIA V2\X64\DEBUG\RECEIVEDMESSAGE.OBJ
C:\USERS\USER\DESKTOP\TRIVIA\TRIVIA V10\TRIVIA V2\X64\DEBUG\ROOM.OBJ
C:\USERS\USER\DESKTOP\TRIVIA\TRIVIA V10\TRIVIA V2\X64\DEBUG\TRIVIASERVER.OBJ
C:\USERS\USER\DESKTOP\TRIVIA\TRIVIA V10\TRIVIA V2\X64\DEBUG\USER.OBJ
C:\USERS\USER\DESKTOP\TRIVIA\TRIVIA V10\TRIVIA V2\X64\DEBUG\VALIDATOR.OBJ
C:\USERS\USER\DESKTOP\TRIVIA\TRIVIA V10\TRIVIA V2\X64\DEBUG\WSAINITIALIZER.OBJ
C:\USERS\USER\DESKTOP\TRIVIA\TRIVIA V10\TRIVIA V2\X64\DEBUG\SOURCE.OBJ
C:\WINDOWS\SYSTEM32\TZRES.DLL
C:\WINDOWS\GLOBALIZATION\SORTING\SORTDEFAULT.NLS
C:\PROGRAM FILES (X86)\MICROSOFT VISUAL STUDIO 12.0\VC\LIB\AMD64\MSVCPRTD.LIB
C:\PROGRAM FILES (X86)\MICROSOFT VISUAL STUDIO 12.0\VC\LIB\AMD64\MSVCRTD.LIB
C:\PROGRAM FILES (X86)\MICROSOFT VISUAL STUDIO 12.0\VC\LIB\AMD64\OLDNAMES.LIB
C:\PROGRAM FILES (X86)\WINDOWS KITS\8.1\LIB\WINV6.3\UM\X64\WS2_32.LIB
